{
    "folder": null,
    "name": "results",
    "creationDate": {
        "$$date": 1574517836989
    },
    "modificationDate": {
        "$$date": 1574517836989
    },
    "shortid": "8D4mtsm",
    "_id": "fOZOE9Wh66al3IFD",
    "$entitySet": "folders"
}