{
    "shortid": "ByOFkaU2B",
    "name": "data",
    "creationDate": {
        "$$date": 1574518662433
    },
    "modificationDate": {
        "$$date": 1603631258741
    },
    "_id": "OWblvfoId5Yd4r1f",
    "$entitySet": "data"
}